Pendul/Data/pendul_forsøg2.csv

#Digilent WaveForms Oscilloscope Acquisition
#Device Name: Discovery2
#Serial Number: SN:210321A35EA5
#Date Time: 2022-12-02 09:35:57.242
#Sample rate: 40Hz
#Samples: 7750
#Trigger: Source: Channel 1 Type: Edge Condition: Rising Level: 0 V Hyst.: Auto HoldOff: 10 s
#Channel 1: Range: 1 V/div Offset: -3.5 V Attenuation: 1 X Sample Mode: Average
#Channel 2: Range: 500 mV/div Offset: 0 V Attenuation: 1 X Sample Mode: Average
#Power Supplies: ON
#Positive Supply: ON
#Voltage: 5 V
#Negative Supply: ON
#Voltage: -1 V

Time (s),Channel 1 (V),Channel 2 (V)
-101.65,4.216780055376573,-0.001677652469016242
-101.625,4.864314064768307,-0.003339973071199579
-101.6,4.864314064768307,-0.003339973071199579
-101.575,4.864314064768307,-0.003339973071199579
-101.55,4.864314064768307,-0.003339973071199579
-101.525,4.864314064768307,-0.003339973071199579
-101.5,4.864314064768307,-0.003339973071199579
-101.475,4.864314064768307,-0.003339973071199579
-101.45,4.864314064768307,-0.003339973071199579
-101.425,4.864314064768307,-0.003339973071199579
-101.4,4.864314064768307,-0.003339973071199579
-101.375,4.864314064768307,-0.003339973071199579
-101.35,4.864314064768307,-0.003339973071199579
-101.325,4.864314064768307,-0.003339973071199579
-101.3,4.864314064768307,-0.003339973071199579
-101.275,4.864314064768307,-0.003339973071199579
-101.25,4.864314064768307,-0.003339973071199579
-101.225,4.864314064768307,-0.003339973071199579
-101.2,4.864314064768307,-0.003339973071199579
-101.175,4.864314064768307,-0.003339973071199579
-101.15,4.864314064768307,-0.003339973071199579
-101.125,4.864314064768307,-0.003339973071199579
-101.1,4.864314064768307,-0.003339973071199579
-101.075,4.864314064768307,-0.003339973071199579
-101.05,4.864314064768307,-0.003339973071199579
-101.025,4.864314064768307,-0.003339973071199579
-101,4.864314064768307,-0.003339973071199579
-100.975,4.864314064768307,-0.003339973071199579
-100.95,4.864314064768307,-0.003339973071199579
-100.925,4.864314064768307,-0.003339973071199579
-100.9,4.864314064768307,-0.003339973071199579
-100.875,4.864314064768307,-0.003339973071199579
-100.85,4.864314064768307,-0.003339973071199579
-100.825,4.864314064768307,-0.003339973071199579
-100.8,4.864314064768307,-0.003339973071199579
-100.775,4.864314064768307,-0.003339973071199579
-100.75,4.864314064768307,-0.003339973071199579
-100.725,4.864314064768307,-0.003339973071199579
-100.7,4.864314064768307,-0.003339973071199579
-100.675,4.857038401741434,-0.003339973071199579
-100.65,0.9900235029582101,-0.003339973071199579
-100.625,0.2333545481633741,-0.003339973071199579
-100.6,0.2697328632977412,-0.003339973071199579
-100.575,0.2806463578380511,-0.003339973071199579
-100.55,0.2806463578380511,-0.003339973071199579
-100.525,0.2806463578380511,-0.003339973071199579
-100.5,0.2806463578380511,-0.003339973071199579
-100.475,0.2806463578380511,-0.003339973071199579
-100.45,0.2806463578380511,-0.003339973071199579
-100.425,0.2806463578380511,-0.003339973071199579
-100.4,0.2806463578380511,-0.003339973071199579
-100.375,0.2806463578380511,-0.003339973071199579
-100.35,0.2806463578380511,-0.003339973071199579
-100.325,0.2806463578380511,-0.003339973071199579
-100.3,0.2806463578380511,-0.003339973071199579
-100.275,0.2806463578380511,-0.003339973071199579
-100.25,0.2806463578380511,-0.003339973071199579
-100.225,0.2806463578380511,-0.003339973071199579
-100.2,0.2806463578380511,-0.003339973071199579
-100.175,0.2806463578380511,-0.003339973071199579
-100.15,0.2806463578380511,-0.003339973071199579
-100.125,0.2806463578380511,-0.003339973071199579
-100.1,0.2806463578380511,-0.003339973071199579
-100.075,0.2806463578380511,-0.003339973071199579
-100.05,0.2806463578380511,-0.003339973071199579
-100.025,0.2806463578380511,-0.003339973071199579
-100,0.2806463578380511,-0.003339973071199579
-99.97500000000001,0.2806463578380511,-0.003339973071199579
-99.95,0.2806463578380511,-0.003339973071199579
-99.92500000000001,0.2806463578380511,-0.003339973071199579
-99.90000000000001,0.2806463578380511,-0.003339973071199579
-99.875,0.2806463578380511,-0.003339973071199579
-99.85000000000001,0.2806463578380511,-0.003339973071199579
-99.825,0.2806463578380511,-0.003339973071199579
-99.80000000000001,0.2806463578380511,-0.003339973071199579
-99.77500000000001,0.2806463578380511,-0.003339973071199579
-99.75,0.2806463578380511,-0.003339973071199579
-99.72500000000001,0.2806463578380511,-0.003339973071199579
-99.7,0.2806463578380511,-0.003339973071199579
-99.67500000000001,0.2806463578380511,-0.003339973071199579
-99.65000000000001,0.2806463578380511,-0.003339973071199579
-99.625,0.2806463578380511,-0.003339973071199579
-99.60000000000001,0.2806463578380511,-0.003339973071199579
-99.575,0.2806463578380511,-0.003339973071199579
-99.55000000000001,0.2806463578380511,-0.003339973071199579
-99.52500000000001,0.2806463578380511,-0.003339973071199579
-99.5,0.2806463578380511,-0.003339973071199579
-99.47500000000001,0.2806463578380511,-0.003339973071199579
-99.45,0.2806463578380511,-0.003339973071199579
-99.42500000000001,0.2806463578380511,-0.003339973071199579
-99.40000000000001,0.2806463578380511,-0.003339973071199579
-99.375,0.2806463578380511,-0.003339973071199579
-99.35000000000001,0.2806463578380511,-0.003339973071199579
-99.325,0.2806463578380511,-0.003339973071199579
-99.30000000000001,0.2806463578380511,-0.003339973071199579
-99.27500000000001,0.2806463578380511,-0.003339973071199579
-99.25,0.2806463578380511,-0.003339973071199579
-99.22500000000001,0.2806463578380511,-0.003339973071199579
-99.2,0.2806463578380511,-0.003339973071199579
-99.17500000000001,0.2806463578380511,-0.003339973071199579
-99.15000000000001,0.2806463578380511,-0.003339973071199579
-99.125,0.2806463578380511,-0.003339973071199579
-99.10000000000001,0.2806463578380511,-0.003339973071199579
-99.075,0.2806463578380511,-0.003339973071199579
-99.05000000000001,0.2806463578380511,-0.003339973071199579
-99.02500000000001,0.2806463578380511,-0.003339973071199579
-99,0.2806463578380511,-0.003339973071199579
-98.97500000000001,0.2806463578380511,-0.003339973071199579
-98.95,0.2806463578380511,-0.003339973071199579
-98.92500000000001,0.2806463578380511,-0.003339973071199579
-98.90000000000001,0.2806463578380511,-0.003339973071199579
-98.875,0.2806463578380511,-0.003339973071199579
-98.85000000000001,0.2806463578380511,-0.003339973071199579
-98.825,0.2770085263246145,-0.003339973071199579
-98.80000000000001,0.2515437057305574,-0.003339973071199579
-98.77500000000001,0.2333545481633741,-0.003339973071199579
-98.75,3.489213752689231,-0.003339973071199579
-98.72500000000001,4.864314064768307,-0.003339973071199579
-98.7,4.864314064768307,-0.003339973071199579
-98.67500000000001,4.864314064768307,-0.003339973071199579
-98.65000000000001,4.864314064768307,-0.003339973071199579
-98.625,4.864314064768307,-0.003339973071199579
-98.60000000000001,4.864314064768307,-0.003339973071199579
-98.575,4.864314064768307,-0.003339973071199579
-98.55000000000001,4.864314064768307,-0.003339973071199579
-98.52500000000001,4.864314064768307,-0.003339973071199579
-98.5,4.864314064768307,-0.003339973071199579
-98.47500000000001,4.864314064768307,-0.003339973071199579
-98.45,4.864314064768307,-0.003339973071199579
-98.42500000000001,4.864314064768307,-0.003339973071199579
-98.40000000000001,4.864314064768307,-0.003339973071199579
-98.375,4.864314064768307,-0.003339973071199579
-98.35000000000001,4.864314064768307,-0.003339973071199579
-98.325,4.864314064768307,-0.003339973071199579
-98.30000000000001,4.864314064768307,-0.003339973071199579
-98.27500000000001,4.864314064768307,-0.003339973071199579
-98.25,4.864314064768307,-0.003339973071199579
-98.22500000000001,4.864314064768307,-0.003339973071199579
-98.2,4.864314064768307,-0.003339973071199579
-98.17500000000001,4.864314064768307,-0.003339973071199579
-98.15000000000001,4.864314064768307,-0.003339973071199579
-98.125,4.864314064768307,-0.003339973071199579
-98.10000000000001,4.864314064768307,-0.003339973071199579
-98.075,4.864314064768307,-0.003339973071199579
-98.05000000000001,4.864314064768307,-0.003339973071199579
-98.02500000000001,4.864314064768307,-0.003339973071199579
-98,4.864314064768307,-0.003339973071199579
-97.97500000000001,4.864314064768307,-0.003339973071199579
-97.95,4.864314064768307,-0.003339973071199579
-97.92500000000001,2.92534986810654,-0.003339973071199579
-97.90000000000001,0.2406302111902474,-0.003339973071199579
-97.875,0.2588193687574312,-0.003339973071199579
-97.85000000000001,0.2770085263246145,-0.003339973071199579
-97.825,0.2806463578380511,-0.003339973071199579
-97.80000000000001,0.2806463578380511,-0.003339973071199579
-97.77500000000001,0.2806463578380511,-0.003339973071199579
-97.75,0.2806463578380511,-0.003339973071199579
-97.72500000000001,0.2806463578380511,-0.003339973071199579
-97.7,0.2806463578380511,-0.003339973071199579
-97.67500000000001,0.2806463578380511,-0.003339973071199579
-97.65000000000001,0.2806463578380511,-0.003339973071199579
-97.625,0.2806463578380511,-0.003339973071199579
-97.60000000000001,0.2806463578380511,-0.003339973071199579
-97.575,0.2806463578380511,-0.003339973071199579
-97.55000000000001,0.2806463578380511,-0.003339973071199579
-97.52500000000001,0.2806463578380511,-0.003339973071199579
-97.5,0.2806463578380511,-0.003339973071199579
-97.47500000000001,0.2806463578380511,-0.003339973071199579
-97.45,0.2806463578380511,-0.003339973071199579
-97.42500000000001,0.2806463578380511,-0.003339973071199579
-97.40000000000001,0.2806463578380511,-0.003339973071199579
-97.375,0.2806463578380511,-0.003339973071199579
-97.35000000000001,0.2806463578380511,-0.003339973071199579
-97.325,0.2806463578380511,-0.003339973071199579
-97.30000000000001,0.2806463578380511,-0.003339973071199579
-97.27500000000001,0.2806463578380511,-0.003339973071199579
-97.25,0.2806463578380511,-0.003339973071199579
-97.22500000000001,0.2806463578380511,-0.003339973071199579
-97.2,0.2806463578380511,-0.003339973071199579
-97.17500000000001,0.2806463578380511,-0.003339973071199579
-97.15000000000001,0.2806463578380511,-0.003339973071199579
-97.125,0.2806463578380511,-0.003339973071199579
-97.10000000000001,0.2806463578380511,-0.003339973071199579
-97.075,0.2806463578380511,-0.003339973071199579
-97.05000000000001,0.2806463578380511,-0.003339973071199579
-97.02500000000001,0.2806463578380511,-0.003339973071199579
-97,0.2806463578380511,-0.003339973071199579
-96.97500000000001,0.2806463578380511,-0.003339973071199579
-96.95,0.2806463578380511,-0.003339973071199579
-96.92500000000001,0.2806463578380511,-0.003339973071199579
-96.90000000000001,0.2806463578380511,-0.003339973071199579
-96.875,0.2806463578380511,-0.003339973071199579
-96.85000000000001,0.2806463578380511,-0.003339973071199579
-96.825,0.2806463578380511,-0.003339973071199579
-96.80000000000001,0.2806463578380511,-0.003339973071199579
-96.77500000000001,0.2806463578380511,-0.003339973071199579
-96.75,0.2806463578380511,-0.003339973071199579
-96.72500000000001,0.2806463578380511,-0.003339973071199579
-96.7,0.2806463578380511,-0.003339973071199579
-96.67500000000001,0.2806463578380511,-0.003339973071199579
-96.65000000000001,0.2806463578380511,-0.003339973071199579
-96.625,0.2806463578380511,-0.003339973071199579
-96.60000000000001,0.2806463578380511,-0.003339973071199579
-96.575,0.2806463578380511,-0.003339973071199579
-96.55000000000001,0.2806463578380511,-0.003339973071199579
-96.52500000000001,0.2806463578380511,-0.003339973071199579
-96.5,0.2806463578380511,-0.003339973071199579
-96.47500000000001,0.2806463578380511,-0.003339973071199579
-96.45,0.2806463578380511,-0.003339973071199579
-96.42500000000001,0.2806463578380511,-0.003339973071199579
-96.40000000000001,0.2806463578380511,-0.003339973071199579
-96.375,0.2806463578380511,-0.003339973071199579
-96.35000000000001,0.2806463578380511,-0.003339973071199579
-96.325,0.2806463578380511,-0.003339973071199579
-96.30000000000001,0.2806463578380511,-0.003339973071199579
-96.27500000000001,0.2806463578380511,-0.003339973071199579
-96.25,0.2806463578380511,-0.003339973071199579
-96.22500000000001,0.2806463578380511,-0.003339973071199579
-96.2,0.2806463578380511,-0.003339973071199579
-96.17500000000001,0.2806463578380511,-0.003339973071199579
-96.15000000000001,0.2806463578380511,-0.003339973071199579
-96.125,0.2806463578380511,-0.003339973071199579
-96.10000000000001,0.2806463578380511,-0.003339973071199579
-96.075,0.2697328632977412,-0.003339973071199579
-96.05000000000001,0.2224410536230641,-0.003339973071199579
-96.02500000000001,1.339255328248134,-0.003339973071199579
-96,4.860676233254871,-0.003339973071199579
-95.97500000000001,4.864314064768307,-0.003339973071199579
-95.95,4.864314064768307,-0.003339973071199579
-95.92500000000001,4.864314064768307,-0.003339973071199579
-95.90000000000001,4.864314064768307,-0.003339973071199579
-95.875,4.864314064768307,-0.003339973071199579
-95.85000000000001,4.864314064768307,-0.003339973071199579
-95.825,4.864314064768307,-0.003339973071199579
-95.80000000000001,4.864314064768307,-0.003339973071199579
-95.77500000000001,4.864314064768307,-0.003339973071199579
-95.75,4.864314064768307,-0.003339973071199579
-95.72500000000001,4.864314064768307,-0.003339973071199579
-95.7,4.864314064768307,-0.003339973071199579
-95.67500000000001,4.864314064768307,-0.003339973071199579
-95.65000000000001,4.864314064768307,-0.003339973071199579
-95.625,4.864314064768307,-0.003339973071199579
-95.60000000000001,4.864314064768307,-0.003339973071199579
-95.575,4.864314064768307,-0.003339973071199579
-95.55000000000001,4.864314064768307,-0.003339973071199579
-95.52500000000001,4.864314064768307,-0.003339973071199579
-95.5,4.864314064768307,-0.003339973071199579
-95.47500000000001,4.864314064768307,-0.003339973071199579
-95.45,4.864314064768307,-0.003339973071199579
-95.42500000000001,4.864314064768307,-0.003339973071199579
-95.40000000000001,4.864314064768307,-0.003339973071199579
-95.375,4.864314064768307,-0.003339973071199579
-95.35000000000001,4.864314064768307,-0.003339973071199579
-95.325,4.864314064768307,-0.003339973071199579
-95.30000000000001,4.864314064768307,-0.003339973071199579
-95.27500000000001,4.864314064768307,-0.003339973071199579
-95.25,4.864314064768307,-0.003339973071199579
-95.22500000000001,4.864314064768307,-0.003339973071199579
-95.2,4.525995734018693,-0.003339973071199579
-95.17500000000001,0.3315759990261653,-0.003339973071199579
-95.15000000000001,0.2406302111902474,-0.003339973071199579
-95.125,0.2733706948111778,-0.003339973071199579
-95.10000000000001,0.2806463578380511,-0.003339973071199579
-95.075,0.2806463578380511,-0.003339973071199579
-95.05000000000001,0.2806463578380511,-0.003339973071199579
-95.02500000000001,0.2806463578380511,-0.003339973071199579
-95,0.2806463578380511,-0.003339973071199579
-94.97500000000001,0.2806463578380511,-0.003339973071199579
-94.95,0.2806463578380511,-0.003339973071199579
-94.92500000000001,0.2806463578380511,-0.003339973071199579
-94.90000000000001,0.2806463578380511,-0.003339973071199579
-94.875,0.2806463578380511,-0.003339973071199579
-94.85000000000001,0.2806463578380511,-0.003339973071199579
-94.825,0.2842841893514878,-0.003339973071199579
-94.80000000000001,0.2842841893514878,-0.003339973071199579
-94.77500000000001,0.2806463578380511,-0.003339973071199579
-94.75,0.2842841893514878,-0.003339973071199579
-94.72500000000001,0.2842841893514878,-0.003339973071199579
-94.7,0.2842841893514878,-0.003339973071199579
-94.67500000000001,0.2842841893514878,-0.003339973071199579
-94.65000000000001,0.2842841893514878,-0.003339973071199579
-94.625,0.2842841893514878,-0.003339973071199579
-94.60000000000001,0.2842841893514878,-0.003339973071199579
-94.575,0.2842841893514878,-0.003339973071199579
-94.55000000000001,0.2842841893514878,-0.003339973071199579
-94.52500000000001,0.2842841893514878,-0.003339973071199579
-94.5,0.2842841893514878,-0.003339973071199579
-94.47500000000001,0.2842841893514878,-0.003339973071199579
-94.45,0.2842841893514878,-0.003339973071199579
-94.42500000000001,0.2842841893514878,-0.003339973071199579
-94.40000000000001,0.2842841893514878,-0.003339973071199579
-94.375,0.2842841893514878,-0.003339973071199579
-94.35000000000001,0.2842841893514878,-0.003339973071199579
-94.325,0.2842841893514878,-0.003339973071199579
-94.30000000000001,0.2842841893514878,-0.003339973071199579
-94.27500000000001,0.2842841893514878,-0.003339973071199579
-94.25,0.2842841893514878,-0.003339973071199579
-94.22500000000001,0.2842841893514878,-0.003339973071199579
-94.2,0.2842841893514878,-0.003339973071199579
-94.17500000000001,0.2842841893514878,-0.003339973071199579
-94.15000000000001,0.2842841893514878,-0.003339973071199579
-94.125,0.2842841893514878,-0.003339973071199579
-94.10000000000001,0.2842841893514878,-0.003339973071199579
-94.075,0.2842841893514878,-0.003339973071199579
-94.05000000000001,0.2842841893514878,-0.003339973071199579
-94.02500000000001,0.2842841893514878,-0.003339973071199579
-94,0.2842841893514878,-0.003339973071199579
-93.97500000000001,0.2842841893514878,-0.003339973071199579
-93.95,0.2842841893514878,-0.003339973071199579
-93.92500000000001,0.2842841893514878,-0.003339973071199579
-93.90000000000001,0.2842841893514878,-0.003339973071199579
-93.875,0.2842841893514878,-0.003339973071199579
-93.85000000000001,0.2842841893514878,-0.003339973071199579
-93.825,0.2842841893514878,-0.003339973071199579
-93.80000000000001,0.2842841893514878,-0.003339973071199579
-93.77500000000001,0.2842841893514878,-0.003339973071199579
-93.75,0.2842841893514878,-0.003339973071199579
-93.72500000000001,0.2842841893514878,-0.003339973071199579
-93.7,0.2842841893514878,-0.003339973071199579
-93.67500000000001,0.2842841893514878,-0.003339973071199579
-93.65000000000001,0.2842841893514878,-0.003339973071199579
-93.625,0.2842841893514878,-0.003339973071199579
-93.60000000000001,0.2842841893514878,-0.003339973071199579
-93.575,0.2842841893514878,-0.003339973071199579
-93.55000000000001,0.2842841893514878,-0.003339973071199579
-93.52500000000001,0.2842841893514878,-0.003339973071199579
-93.5,0.2842841893514878,-0.003339973071199579
-93.47500000000001,0.2842841893514878,-0.003339973071199579
-93.45,0.2842841893514878,-0.003339973071199579
-93.42500000000001,0.2842841893514878,-0.003339973071199579
-93.40000000000001,0.2842841893514878,-0.003339973071199579
-93.375,0.2842841893514878,-0.003339973071199579
-93.35000000000001,0.2806463578380511,-0.003339973071199579
-93.325,0.2479058742171207,-0.003339973071199579
-93.30000000000001,0.2406302111902474,-0.003339973071199579
-93.27500000000001,3.576521709011712,-0.003339973071199579
-93.25,4.857038401741434,-0.003339973071199579
-93.22500000000001,4.857038401741434,-0.003339973071199579
-93.2,4.857038401741434,-0.003339973071199579
-93.17500000000001,4.857038401741434,-0.003339973071199579
-93.15000000000001,4.857038401741434,-0.003339973071199579
-93.125,4.857038401741434,-0.003339973071199579
-93.10000000000001,4.857038401741434,-0.003339973071199579
-93.075,4.857038401741434,-0.003339973071199579
-93.05000000000001,4.857038401741434,-0.003339973071199579
-93.02500000000001,4.857038401741434,-0.003339973071199579
-93,4.857038401741434,-0.003339973071199579
-92.97500000000001,4.857038401741434,-0.003339973071199579
-92.95,4.857038401741434,-0.003339973071199579
-92.92500000000001,4.857038401741434,-0.003339973071199579
-92.90000000000001,4.857038401741434,-0.003339973071199579
-92.875,4.857038401741434,-0.003339973071199579
-92.85000000000001,4.857038401741434,-0.003339973071199579
-92.825,4.857038401741434,-0.003339973071199579
-92.80000000000001,4.857038401741434,-0.003339973071199579
-92.77500000000001,4.857038401741434,-0.003339973071199579
-92.75,4.857038401741434,-0.003339973071199579
-92.72500000000001,4.857038401741434,-0.003339973071199579
-92.7,4.857038401741434,-0.003339973071199579
-92.67500000000001,4.857038401741434,-0.003339973071199579
-92.65000000000001,4.857038401741434,-0.003339973071199579
